Homework 4
…
tabulate(ChickWeight$Chick) # There are 5 chicks with counts < 12. Remove 

##  [1]  2  7  8 12 12 12 12 11 12 12 12 12 12 12 12 12 12 12 12 12 12 12 12
## [24] 12 12 12 12 12 12 12 12 12 12 12 12 12 12 12 12 12 10 12 12 12 12 12
## [47] 12 12 12 12

print(length(which(tabulate(ChickWeight$Chick) == 12)))

## [1] 45

ChickWeight %>% group_by(Chick) %>% summarize(n = n())#Chicks 18, 16, 15, 8, and 44 all have less than 12 measurements

## # A tibble: 50 x 2
##    Chick     n
##    <ord> <int>
##  1 18        2
##  2 16        7
##  3 15        8
##  4 13       12
##  5 9        12
##  6 20       12
##  7 10       12
##  8 8        11
##  9 17       12
## 10 19       12
## #  with 40 more rows
…
complete <- ChickWeight %>% group_by(Chick) %>% mutate(n = n()) %>% filter(n() == 12)
print(head(complete, 3))

## # A tibble: 3 x 5
## # Groups:   Chick [1]
##   weight  Time Chick Diet      n
##    <dbl> <dbl> <ord> <fct> <int>
## 1     42     0 1     1        12
## 2     51     2 1     1        12
## 3     59     4 1     1        12

complete <- complete %>% group_by(Chick) %>% mutate(weightgain = weight[Time == Time] - weight[Time == 0])
complete

## # A tibble: 540 x 6
## # Groups:   Chick [45]
##    weight  Time Chick Diet      n weightgain
##     <dbl> <dbl> <ord> <fct> <int>      <dbl>
##  1     42     0 1     1        12          0
##  2     51     2 1     1        12          9
##  3     59     4 1     1        12         17
##  4     64     6 1     1        12         22
##  5     76     8 1     1        12         34
##  6     93    10 1     1        12         51
##  7    106    12 1     1        12         64
##  8    125    14 1     1        12         83
##  9    149    16 1     1        12        107
## 10    171    18 1     1        12        129
## #  with 530 more rows
…
complete %>% mutate(weightgain = sum(weightgain)) %>% distinct(weightgain) %>% arrange(weightgain)

## # A tibble: 45 x 2
## # Groups:   Chick [45]
##    weightgain Chick
##         <dbl> <ord>
##  1        291 24   
##  2        322 13   
##  3        449 20   
##  4        470 9    
##  5        505 10   
##  6        525 19   
##  7        606 17   
##  8        688 4    
##  9        738 30   
## 10        738 37   
## #  with 35 more rows
…
Series <- complete %>% group_by(Chick) %>% mutate(weight_log = weight[Time == 0]) %>% filter(weight_log == 39 | weight_log == 43) %>% arrange(weight_log) 
print(Series)

## # A tibble: 120 x 7
## # Groups:   Chick [10]
##    weight  Time Chick Diet      n weightgain weight_log
##     <dbl> <dbl> <ord> <fct> <int>      <dbl>      <dbl>
##  1     39     0 27    2        12          0         39
##  2     46     2 27    2        12          7         39
##  3     58     4 27    2        12         19         39
##  4     73     6 27    2        12         34         39
##  5     87     8 27    2        12         48         39
##  6    100    10 27    2        12         61         39
##  7    115    12 27    2        12         76         39
##  8    123    14 27    2        12         84         39
##  9    144    16 27    2        12        105         39
## 10    163    18 27    2        12        124         39
## #  with 110 more rows
…
